; ModuleID = 'probe1.c3c3fd961e66d00c-cgu.0'
source_filename = "probe1.c3c3fd961e66d00c-cgu.0"
target datalayout = "e-m:e-p:32:32-p10:8:8-p20:8:8-i64:64-n32:64-S128-ni:1:10:20"
target triple = "wasm32-unknown-wasi"

!llvm.ident = !{!0}

!0 = !{!"rustc version 1.74.1 (a28077b28 2023-12-04)"}
