; ModuleID = 'probe4.d50822fbc0ed728e-cgu.0'
source_filename = "probe4.d50822fbc0ed728e-cgu.0"
target datalayout = "e-m:e-p:32:32-p10:8:8-p20:8:8-i64:64-n32:64-S128-ni:1:10:20"
target triple = "wasm32-unknown-wasi"

; probe4::probe
; Function Attrs: nounwind
define hidden void @_ZN6probe45probe17h2c15e94504eee0a4E() unnamed_addr #0 {
start:
  %0 = alloca i32, align 4
  store i32 1, ptr %0, align 4
  %_0.i = load i32, ptr %0, align 4, !noundef !1
  ret void
}

; Function Attrs: nocallback nofree nosync nounwind speculatable willreturn memory(none)
declare hidden i32 @llvm.cttz.i32(i32, i1 immarg) #1

attributes #0 = { nounwind "target-cpu"="generic" }
attributes #1 = { nocallback nofree nosync nounwind speculatable willreturn memory(none) }

!llvm.ident = !{!0}

!0 = !{!"rustc version 1.74.1 (a28077b28 2023-12-04)"}
!1 = !{}
